<?xml version="1.0" encoding="utf-8"?>
<!-- Generator: Adobe Illustrator 16.0.0, SVG Export Plug-In . SVG Version: 6.00 Build 0)  -->
<!DOCTYPE svg PUBLIC "-//W3C//DTD SVG 1.1//EN" "http://www.w3.org/Graphics/SVG/1.1/DTD/svg11.dtd">
<svg version="1.1" id="Layer_1" xmlns="http://www.w3.org/2000/svg" xmlns:xlink="http://www.w3.org/1999/xlink" x="0px" y="0px"
	 width="100px" height="90px" viewBox="0 0 100 90" enable-background="new 0 0 100 90" xml:space="preserve">
<g>
	<g id="c77_music_7_">
		<g>
			<path fill="#3CBCA8" d="M65.8,1.929L20.681,9.247v48.115c-2.36-0.834-5.18-0.973-8.057-0.258
				c-6.407,1.599-10.588,6.87-9.363,11.782c0.721,4.55,7.408,7.6,13.798,5.986c5.628-1.395,9.546-5.652,9.58-10h0.006l0.139-39.692
				l33.065-6.046v30.707c-2.411-0.848-5.29-0.996-8.206-0.271c-6.462,1.621-10.692,6.943-9.459,11.905
				c1.24,4.952,7.485,7.665,13.948,6.058C62.016,66.048,65.8,62,65.8,56.953V1.929z"/>
		</g>
	</g>
	<g id="c77_music_3_" opacity="0.8">
		<g>
			<path fill="#513C96" d="M97.177,15.167l-45.123,7.318v48.121c-2.36-0.833-5.177-0.979-8.055-0.266
				c-6.408,1.595-10.587,6.873-9.364,11.79c0.72,4.539,7.41,7.6,13.801,5.986c5.628-1.395,9.544-5.652,9.582-9.999h0.005
				l0.136-39.699l33.069-6.045v30.704c-2.414-0.846-5.292-0.993-8.211-0.274c-6.466,1.621-10.686,6.95-9.462,11.911
				c1.246,4.955,7.488,7.653,13.953,6.058c5.883-1.483,9.665-5.538,9.665-10.585V15.167H97.177z"/>
		</g>
	</g>
</g>
</svg>
