<?xml version="1.0" encoding="utf-8"?>
<!-- Generator: Adobe Illustrator 16.0.0, SVG Export Plug-In . SVG Version: 6.00 Build 0)  -->
<!DOCTYPE svg PUBLIC "-//W3C//DTD SVG 1.1//EN" "http://www.w3.org/Graphics/SVG/1.1/DTD/svg11.dtd">
<svg version="1.1" id="Layer_1" xmlns="http://www.w3.org/2000/svg" xmlns:xlink="http://www.w3.org/1999/xlink" x="0px" y="0px"
	 width="55px" height="50px" viewBox="0 0 55 50" enable-background="new 0 0 55 50" xml:space="preserve">
<g>
	<polygon opacity="0.8" fill="#3CBCA8" points="21.5,41.432 0,30.696 0,9.228 21.5,19.962 	"/>
	<polygon opacity="0.8" fill="#3CBCA8" points="43.645,31.046 22.145,41.778 22.145,20.31 43.645,9.577 	"/>
	<polygon opacity="0.8" fill="#3CBCA8" points="21.224,0 42.539,8.477 21.468,19.091 0.362,8.428 	"/>
	<g>
		<polygon opacity="0.8" fill="#513C96" enable-background="new    " points="32.752,50 11.255,39.265 11.255,17.798 32.752,28.532 
					"/>
		<polygon opacity="0.8" fill="#513C96" enable-background="new    " points="55,39.265 33.502,50 33.502,28.532 55,17.798 		"/>
		<polygon opacity="0.8" fill="#513C96" enable-background="new    " points="32.904,8.541 54.219,17.017 33.148,27.631 
			12.042,16.969 		"/>
		<g>
			<g id="c77_music_7_">
				<g>
					<path fill="#3CBCA8" d="M24.218,28.384l-7.467-2.72v7.909c-0.392-0.341-0.857-0.613-1.333-0.742
						c-1.062-0.297-1.753,0.207-1.55,1.12c0.118,0.811,1.226,1.893,2.283,2.183c0.931,0.262,1.581-0.098,1.585-0.81h0.002
						l0.025-6.51l5.47,1.881v5.049c-0.399-0.352-0.875-0.624-1.356-0.761c-1.07-0.295-1.771,0.211-1.567,1.134
						c0.206,0.925,1.239,1.909,2.309,2.21c0.975,0.268,1.6-0.068,1.6-0.899V28.384z"/>
				</g>
			</g>
			<g id="c77_music_3_" opacity="0.8">
				<g>
					<path fill="#513C96" d="M29.412,33.29l-7.466-2.722v7.907c-0.391-0.341-0.86-0.611-1.334-0.742
						c-1.062-0.294-1.753,0.209-1.551,1.122c0.119,0.811,1.229,1.893,2.283,2.185c0.931,0.259,1.582-0.101,1.587-0.811h0.001
						l0.021-6.513l5.473,1.883v5.046c-0.398-0.348-0.873-0.623-1.357-0.757C26,39.591,25.3,40.098,25.503,41.022
						c0.204,0.923,1.239,1.908,2.307,2.206c0.975,0.27,1.602-0.066,1.602-0.896V33.29z"/>
				</g>
			</g>
		</g>
		<g>
			<path fill="#3CBCA8" d="M47.162,29.609c-0.662-0.976-1.465-0.958-2.172-0.615l0,0l-5.568,2.715v0.005
				c-0.689,0.364-1.453,1.129-2.092,2.691c-1.582,3.869-0.941,6.935-0.941,6.935c0.109,0.772,0.479,1.144,1.174,0.737
				c0.689-0.408,2.193-3.297,2.193-3.297c0.121-0.239,0.385-0.509,0.576-0.603l3.826-1.869c0.193-0.093,0.455-0.076,0.576,0.042
				c0,0,1.504,1.424,2.197,1.154c0.693-0.266,1.063-1.001,1.174-1.881C48.105,35.624,48.742,31.938,47.162,29.609z"/>
			<path opacity="0.8" fill="#513C96" d="M51.172,29.473c-0.66-0.977-1.463-0.961-2.17-0.614v-0.002l-5.568,2.716v0.002
				c-0.689,0.364-1.455,1.135-2.094,2.69c-1.58,3.874-0.943,6.939-0.943,6.939c0.111,0.77,0.48,1.144,1.174,0.734
				c0.695-0.407,2.195-3.298,2.195-3.298c0.125-0.235,0.385-0.51,0.578-0.604l3.826-1.864c0.193-0.098,0.451-0.076,0.576,0.039
				c0,0,1.504,1.425,2.193,1.155c0.697-0.269,1.064-1,1.176-1.882C52.115,35.485,52.752,31.801,51.172,29.473z"/>
		</g>
		<path fill="#3CBCA8" d="M41.234,14.62l-7.432-3.583l-0.529-0.258l-0.617,0.309l-8.654,4.329l-0.618,0.309l0.532,0.256l7.425,3.584
			l0.531,0.257l0.619-0.309l8.652-4.327l0.617-0.309L41.234,14.62z M32.486,14.005c0,0,0.146,0.286,0.199,0.387l1.131,2.133
			c0.049,0.093,0.188,0.351,0.188,0.351s-0.521-0.05-0.74-0.077l-4.375-0.528c-0.217-0.026-0.729-0.104-0.729-0.104
			s0.434-0.215,0.594-0.295l3.066-1.533L32.486,14.005z M40.084,14.674l-0.088,0.565l-0.617,0.308l-1.063-0.512l0.707-0.874
			L40.084,14.674z M37.963,13.649l-0.707,0.875l-1.061-0.513l0.705-0.874L37.963,13.649z M35.84,12.625L35.133,13.5l-1.061-0.512
			l0.703-0.874L35.84,12.625z M33.186,11.345l0.529,0.256l-0.701,0.874l-1.064-0.511L33.186,11.345z"/>
		<path opacity="0.8" fill="#513C96" d="M42.053,18.851l-7.43-3.586l-0.529-0.256l-0.617,0.311l-8.654,4.327l-0.618,0.31l0.53,0.255
			l7.429,3.585l0.531,0.257l0.615-0.311l8.652-4.328l0.619-0.308L42.053,18.851z M33.305,18.234c0,0,0.146,0.288,0.203,0.389
			l1.127,2.131c0.053,0.095,0.188,0.354,0.188,0.354s-0.518-0.051-0.738-0.078l-4.379-0.529c-0.213-0.026-0.725-0.104-0.725-0.104
			s0.432-0.215,0.594-0.296l3.064-1.533L33.305,18.234z M40.9,18.905l-0.086,0.565l-0.617,0.309l-1.063-0.512l0.707-0.874
			L40.9,18.905z M38.781,17.879l-0.705,0.876l-1.063-0.513l0.705-0.876L38.781,17.879z M36.658,16.855l-0.705,0.874l-1.063-0.512
			l0.707-0.873L36.658,16.855z M34.006,15.576l0.531,0.257l-0.707,0.873l-1.061-0.512L34.006,15.576z"/>
	</g>
</g>
</svg>
