<?xml version="1.0" encoding="utf-8"?>
<!-- Generator: Adobe Illustrator 16.0.0, SVG Export Plug-In . SVG Version: 6.00 Build 0)  -->
<!DOCTYPE svg PUBLIC "-//W3C//DTD SVG 1.1//EN" "http://www.w3.org/Graphics/SVG/1.1/DTD/svg11.dtd">
<svg version="1.1" id="Layer_1" xmlns="http://www.w3.org/2000/svg" xmlns:xlink="http://www.w3.org/1999/xlink" x="0px" y="0px"
	 width="500px" height="560px" viewBox="0 0 500 560" enable-background="new 0 0 500 560" xml:space="preserve">
<g>
	<g>
		<polygon fill="#3CBCA8" points="33.07,147.517 33.07,487.415 264.141,433.829 264.141,96.882 		"/>
		<polygon opacity="0.8" fill="#513C96" points="142.41,123.511 142.41,461.989 171.178,455.222 171.178,117.293 		"/>
		<polygon opacity="0.8" fill="#513C96" points="33.07,299.422 33.07,331.852 264.141,278.266 264.141,248.787 		"/>
		<polygon opacity="0.8" fill="#513C96" points="157.115,140.454 50.514,111.524 143.047,21.592 		"/>
		<polygon opacity="0.8" fill="#513C96" points="161.581,120.269 240.209,90.881 170.075,29.208 		"/>
	</g>
	<g>
		<polygon opacity="0.8" fill="#513C96" points="236.226,197.944 236.226,537.846 467.296,484.256 467.296,147.309 		"/>
		<polygon fill="#3CBCA8" points="345.565,173.938 345.565,512.416 374.333,505.657 374.333,167.724 		"/>
		<polygon fill="#3CBCA8" points="236.226,349.856 236.226,382.287 467.296,328.697 467.296,299.222 		"/>
		<polygon fill="#3CBCA8" points="360.27,190.885 253.669,161.951 346.202,72.027 		"/>
		<polygon fill="#3CBCA8" points="364.735,170.699 443.364,141.316 373.23,79.644 		"/>
	</g>
</g>
</svg>
