<?xml version="1.0" encoding="utf-8"?>
<!-- Generator: Adobe Illustrator 16.0.0, SVG Export Plug-In . SVG Version: 6.00 Build 0)  -->
<!DOCTYPE svg PUBLIC "-//W3C//DTD SVG 1.1//EN" "http://www.w3.org/Graphics/SVG/1.1/DTD/svg11.dtd">
<svg version="1.1" id="Layer_1" xmlns="http://www.w3.org/2000/svg" xmlns:xlink="http://www.w3.org/1999/xlink" x="0px" y="0px"
	 width="500px" height="560px" viewBox="0 0 500 560" enable-background="new 0 0 500 560" xml:space="preserve">
<polygon fill="#3CBCA8" points="252.505,163.168 252.505,467.86 412.802,430.769 412.802,128.721 "/>
<polygon opacity="0.8" fill="#513C96" enable-background="new    " points="85.533,160.447 85.533,544.482 287.568,497.729 
	287.568,117.032 "/>
<polygon opacity="0.8" fill="#513C96" enable-background="new    " points="274.941,175.458 274.941,402.452 394.361,374.814 
	394.361,149.797 "/>
<polygon opacity="0.8" fill="#3CBCA8" enable-background="new    " points="106.489,174.323 106.489,479.018 266.781,441.922 
	266.781,139.878 "/>
<polygon opacity="0.8" fill="#513C96" enable-background="new    " points="332.173,406.106 349.625,426.4 317.852,433.537 "/>
<path fill="#FFFFFF" d="M315.465,28.729l55.193-7.18c0,0,29.615,18.396,26.919,20.64c-14.435,12.023-1.853,10.609-27.822,18.397
	c-4.483,1.346-15.702,8.973-28.712,8.973c-13.016,0-38.143-17.05-40.833-21.986C297.52,42.638,315.465,28.729,315.465,28.729z"/>
<g opacity="0.8">
	<path fill="#513C96" d="M331.495,30.595h44.118c0.248,0.031,0.373,0.156,0.373,0.373v4.197c0,0.25-0.125,0.373-0.373,0.373H359.01
		v0.374c2.362,1.275,4.197,3.887,5.504,7.835l0.188,1.353h10.912c0.248,0.031,0.373,0.156,0.373,0.373v4.197
		c0,0.25-0.125,0.373-0.373,0.373H365.12c0,4.695-2.876,9.266-8.628,13.712c-5.1,2.923-8.721,4.384-10.866,4.384
		c0,0.125-0.125,0.187-0.373,0.187l23.692,30.688v0.374h-9.002c-0.094,0-9.25-11.877-27.471-35.631V63.57h2.846
		c10.074,0,16.121-3.622,18.143-10.867c0.124-0.87,0.188-1.57,0.188-2.099v-0.56h-22.152c-0.25,0-0.374-0.124-0.374-0.373v-4.197
		c0.03-0.249,0.155-0.373,0.374-0.373h21.966c-0.746-2.829-2.332-5.13-4.757-6.902c-3.357-1.772-6.421-2.659-9.188-2.659h-8.021
		c-0.25,0-0.374-0.124-0.374-0.373V30.97C331.152,30.719,331.275,30.595,331.495,30.595z"/>
</g>
<g>
	<polygon fill="#8FD3D0" points="184.375,255.313 245.931,331.054 123.605,359.448 	"/>
	<g>
		<g>
			
				<linearGradient id="SVGID_1_" gradientUnits="userSpaceOnUse" x1="558.3682" y1="-131.4946" x2="558.3682" y2="-77.0151" gradientTransform="matrix(0.9764 -0.2277 0 -1 -364.631 305.584)">
				<stop  offset="0" style="stop-color:#89CFC4"/>
				<stop  offset="1" style="stop-color:#7ECFDE"/>
			</linearGradient>
			<polygon fill="url(#SVGID_1_)" points="184.873,308.933 176.244,305.756 184.441,254.694 184.538,254.531 184.617,254.63 			"/>
			
				<linearGradient id="SVGID_2_" gradientUnits="userSpaceOnUse" x1="562.7031" y1="-166.8018" x2="562.7031" y2="-145.1503" gradientTransform="matrix(0.9764 -0.2277 0 -1 -364.631 305.584)">
				<stop  offset="0" style="stop-color:#78C8B0"/>
				<stop  offset="0.772" style="stop-color:#3FBEB5"/>
			</linearGradient>
			<polygon fill="url(#SVGID_2_)" points="246.675,331.338 122.909,360.162 184.792,322.76 			"/>
			
				<linearGradient id="SVGID_3_" gradientUnits="userSpaceOnUse" x1="499.3242" y1="-147.2876" x2="562.7207" y2="-147.2876" gradientTransform="matrix(0.9764 -0.2277 0 -1 -364.631 305.584)">
				<stop  offset="0" style="stop-color:#9DD5BF"/>
				<stop  offset="1" style="stop-color:#61C5C1"/>
			</linearGradient>
			<polygon fill="url(#SVGID_3_)" points="122.909,360.162 122.926,360.136 176.253,305.747 184.809,308.895 184.809,322.816 
				122.958,360.153 			"/>
			
				<linearGradient id="SVGID_4_" gradientUnits="userSpaceOnUse" x1="624.2002" y1="-172.4775" x2="563.7481" y2="-138.9739" gradientTransform="matrix(0.9764 -0.2277 0 -1 -364.631 305.584)">
				<stop  offset="0" style="stop-color:#8CCEB0"/>
				<stop  offset="0.9564" style="stop-color:#75CAC2"/>
				<stop  offset="1" style="stop-color:#74CAC3"/>
			</linearGradient>
			<polygon fill="url(#SVGID_4_)" points="246.675,331.338 246.645,331.347 184.785,322.816 184.798,308.886 246.655,331.316 			"/>
			
				<linearGradient id="SVGID_5_" gradientUnits="userSpaceOnUse" x1="594.2627" y1="-168.312" x2="594.2627" y2="-77.0151" gradientTransform="matrix(0.9764 -0.2277 0 -1 -364.631 305.584)">
				<stop  offset="0" style="stop-color:#9DD5BF"/>
				<stop  offset="0.0406" style="stop-color:#9CD5C1"/>
				<stop  offset="0.4761" style="stop-color:#95D5D3"/>
				<stop  offset="0.793" style="stop-color:#93D5D9"/>
			</linearGradient>
			<polygon fill="url(#SVGID_5_)" points="184.538,254.531 246.675,331.338 184.798,308.895 			"/>
			
				<linearGradient id="SVGID_6_" gradientUnits="userSpaceOnUse" x1="499.3242" y1="-122.645" x2="562.4424" y2="-122.645" gradientTransform="matrix(0.9764 -0.2277 0 -1 -364.631 305.584)">
				<stop  offset="0" style="stop-color:#D0E8D3"/>
				<stop  offset="1" style="stop-color:#B2E1EB"/>
			</linearGradient>
			<polygon fill="url(#SVGID_6_)" points="176.253,305.756 122.909,360.162 177.755,266.144 184.538,254.531 			"/>
		</g>
		<g>
			<path fill="#00B9C5" d="M123.13,360.429c0,0.408-0.322,0.816-0.725,0.911c-0.393,0.09-0.716-0.168-0.716-0.576
				c0-0.403,0.323-0.809,0.716-0.897C122.808,359.771,123.13,360.024,123.13,360.429z"/>
			<path fill="#00B9C5" d="M176.966,305.67c0,0.408-0.325,0.816-0.722,0.911c-0.396,0.086-0.718-0.168-0.718-0.576
				c0-0.403,0.322-0.809,0.718-0.903C176.642,305.008,176.966,305.266,176.966,305.67z"/>
			<path fill="#00B9C5" d="M185.256,254.374c0,0.406-0.32,0.811-0.718,0.903c-0.4,0.093-0.723-0.159-0.723-0.567
				s0.323-0.815,0.723-0.907C184.936,253.71,185.256,253.966,185.256,254.374z"/>
			<path fill="#00B9C5" d="M247.292,331.342c0,0.408-0.322,0.813-0.713,0.903c-0.4,0.09-0.725-0.159-0.725-0.567
				c0-0.403,0.325-0.813,0.725-0.906C246.969,330.685,247.292,330.938,247.292,331.342z"/>
			<path fill="#00B9C5" d="M185.531,322.627c0,0.408-0.325,0.809-0.723,0.902c-0.396,0.095-0.72-0.158-0.72-0.567
				c0-0.403,0.324-0.815,0.72-0.907C185.207,321.965,185.531,322.223,185.531,322.627z"/>
		</g>
	</g>
</g>
<g>
	<g>
		<polygon fill="#3CBCA8" points="305.478,50.893 318.868,46.248 308.479,37.159 		"/>
	</g>
	<path fill="#3CBCA8" d="M299.053,45.053c-3.329-0.521-6.768-0.842-10.215-0.948l0.122-3.998c3.614,0.112,7.22,0.446,10.714,0.994
		L299.053,45.053z M277.622,44.473c-3.349,0.316-6.78,0.824-10.203,1.508l-0.784-3.922c3.557-0.71,7.126-1.238,10.611-1.568
		L277.622,44.473z M256.484,48.753c-3.227,0.987-6.514,2.144-9.775,3.442l-1.479-3.716c3.362-1.338,6.753-2.532,10.084-3.551
		L256.484,48.753z M177.868,129.888l-3.888-0.938c0.834-3.456,1.843-6.914,2.998-10.277l3.784,1.299
		C179.647,123.217,178.674,126.553,177.868,129.888z M236.365,56.809c-3.081,1.523-6.16,3.183-9.152,4.932l-2.018-3.454
		c3.07-1.795,6.233-3.499,9.396-5.063L236.365,56.809z M184.963,109.516l-3.632-1.677c1.482-3.21,3.141-6.405,4.929-9.497
		l3.463,2.003C187.996,103.33,186.395,106.416,184.963,109.516z M217.654,67.839c-2.55,1.781-4.088,3-4.378,3.232
		c-1.157,1.083-2.308,2.196-3.422,3.308l-2.827-2.83c1.162-1.161,2.363-2.322,3.57-3.45l0.103-0.088
		c0.068-0.056,1.7-1.382,4.665-3.451L217.654,67.839z M195.833,90.862l-3.256-2.323c2.036-2.854,4.22-5.666,6.561-8.429l3.053,2.585
		C199.923,85.375,197.804,88.099,195.833,90.862z"/>
</g>
</svg>
