<?xml version="1.0" encoding="utf-8"?>
<!-- Generator: Adobe Illustrator 16.0.0, SVG Export Plug-In . SVG Version: 6.00 Build 0)  -->
<!DOCTYPE svg PUBLIC "-//W3C//DTD SVG 1.1//EN" "http://www.w3.org/Graphics/SVG/1.1/DTD/svg11.dtd">
<svg version="1.1" id="Layer_1" xmlns="http://www.w3.org/2000/svg" xmlns:xlink="http://www.w3.org/1999/xlink" x="0px" y="0px"
	 width="240px" height="259px" viewBox="0 0 240 259" enable-background="new 0 0 240 259" xml:space="preserve">
<path fill-rule="evenodd" clip-rule="evenodd" fill="#3CBCA8" d="M180.249,175.851c-0.417-0.208-1.319-0.473-1.597-0.694
	c6.251-21.406,12.58-40.261,18.352-60.512c2.27-7.971,4.378-16.053,6.006-24.328c1.263-7.086,0.338-13.566-5.537-16.173
	c-5.629-2.508-10.419-0.356-12.85,5.774l-20.621,68.206c-1.013-0.406-2.49-0.936-3.506-1.343c1.05-4.37,0.078-0.703,1.313-4.976
	c7.565-26.127,15.249-52.194,22.802-78.333c2.067-7.165,4.942-16.902-4.084-20.803c-9.304-3.042-12.488,2.731-14.777,10.51
	c-7.922,26.962-15.679,54.016-23.747,80.894c-0.647,2.156-2.253,7.569-2.253,7.569s-1.572-0.462-3.566-1.154
	c1.916-6.567,2.708-9.129,4.241-14.378c4.646-15.927,9.579-31.708,13.83-47.842c2.323-8.832,7.805-21.283-2.61-26.282
	c-12.22-5.971-17.194,16.008-17.194,16.008s-14.956,50.525-18.278,61.903c-1.078-0.622-2.152-1.247-3.229-1.867
	c3.985-13.654,8.12-27.227,11.875-41.003c1.268-4.652,1.493-10.318-2.333-14.489c-2.897-3.159-7.214-3.733-10.606-2.575
	c-4.759,1.631-6.343,6.553-7.775,11.436c-9.454,32.281-18.785,64.626-28.31,96.869c-2.391,8.093-2.512,19.662,2.671,28.92
	c10.739,22.218,46.969,38.167,72.578,30.734c29.128-8.384,40.328-31.771,49.376-48.682l15.934-32.136
	c1.901-5.138,2.734-10.415-2.36-15.088c-0.876-0.649-1.805-1.204-3.055-1.715c-4.227-1.931-9.35-0.229-12.498,3.843
	c-4.79,5.253-10.345,15.876-14.35,24.077C181.013,175.087,180.249,175.851,180.249,175.851z"/>
<path opacity="0.8" fill-rule="evenodd" clip-rule="evenodd" fill="#513C96" d="M127.668,150.671
	c-0.416-0.208-1.318-0.475-1.597-0.694c6.249-21.407,12.576-40.262,18.348-60.512c2.27-7.97,4.38-16.053,6.005-24.328
	c1.268-7.086,0.341-13.566-5.537-16.173c-5.623-2.508-10.414-0.355-12.844,5.775l-20.623,68.206
	c-1.014-0.407-2.493-0.934-3.506-1.344c1.048-4.37,0.076-0.703,1.312-4.974c7.564-26.128,15.249-52.194,22.801-78.333
	c2.067-7.165,4.944-16.902-4.083-20.803c-9.303-3.042-12.49,2.732-14.778,10.51c-7.922,26.962-15.678,54.016-23.747,80.893
	c-0.646,2.157-2.252,7.571-2.252,7.571s-1.573-0.463-3.567-1.154c1.916-6.569,2.708-9.13,4.242-14.38
	c4.646-15.927,9.581-31.708,13.83-47.842c2.323-8.832,7.806-21.283-2.609-26.282c-12.22-5.971-17.196,16.008-17.196,16.008
	S66.91,93.34,63.588,104.718c-1.077-0.622-2.152-1.247-3.229-1.867c3.986-13.654,8.12-27.227,11.874-41.003
	c1.267-4.652,1.493-10.318-2.332-14.489c-2.897-3.159-7.213-3.733-10.606-2.574c-4.759,1.63-6.343,6.552-7.775,11.436
	c-9.454,32.281-18.784,64.625-28.309,96.866c-2.391,8.098-2.513,19.664,2.671,28.922c10.739,22.218,46.97,38.166,72.578,30.734
	c29.126-8.382,40.328-31.771,49.378-48.682l15.935-32.136c1.896-5.138,2.729-10.415-2.36-15.089
	c-0.881-0.648-1.806-1.203-3.056-1.713c-4.227-1.93-9.352-0.231-12.497,3.843c-4.791,5.253-10.346,15.875-14.353,24.078
	C128.433,149.907,127.668,150.671,127.668,150.671z"/>
</svg>
